%YAML 1.1
%TAG !u! tag:unity3d.com,2011:
--- !u!1045 &1
EditorBuildSettings:
  m_ObjectHideFlags: 0
  serializedVersion: 2
  m_Scenes:
  - enabled: 0
    path: Assets/Scenes/SampleScene.unity
    guid: 3db1837cc97a95e4c98610966fac2b0b
  - enabled: 1
    path: Assets/Scenes/New Scene.unity
    guid: 62b0df5f89dc2214fa4981c559835761
  m_configObjects: {}
